{
    "type": "phrase",
    "description": "URL bar",
    "modes": [
        3
    ],
    "usageCount": 24,
    "prompt": false,
    "omitTrigger": false,
    "matchCase": false,
    "showInTrayMenu": false,
    "abbreviation": {
        "abbreviations": [],
        "backspace": true,
        "ignoreCase": false,
        "immediate": false,
        "triggerInside": false,
        "wordChars": "[\\w]"
    },
    "hotkey": {
        "modifiers": [
            "<ctrl>"
        ],
        "hotKey": "j"
    },
    "filter": {
        "regex": "google-chrome.Google-chrome",
        "isRecursive": false
    },
    "sendMode": "kb"
}